<svg width="343" height="227" viewBox="0 0 343 227" fill="none" xmlns="http://www.w3.org/2000/svg">
<path d="M294.221 226.312L283.065 218.266L271.917 226.312L260.761 218.266L249.605 226.312L238.449 218.266L227.293 226.312L216.144 218.266L204.988 226.312L193.84 218.266L182.684 226.312L171.536 218.266L160.38 226.312L149.216 218.266L138.068 226.312L126.912 218.266L115.748 226.312L104.591 218.266L93.4354 226.312L82.2793 218.266L71.1232 226.312L59.9671 218.266L48.811 226.312L37.6468 218.266L26.4907 226.312L15.1101 218.266L2.07481e-05 223.5L3.03946e-05 2.81231L15.3106 8.04618L26.4667 -1.38361e-05L37.6228 8.04618L48.7789 -1.28608e-05L59.927 8.04619L71.0831 -1.18859e-05L82.2392 8.04619L93.3953 -1.09106e-05L104.551 8.04619L115.707 -9.93527e-06L126.856 8.04619L138.012 -8.96032e-06L149.16 8.04619L160.316 -7.98538e-06L171.464 8.04619L182.62 -7.01043e-06L193.776 8.04619L204.932 -6.03513e-06L216.088 8.04619L227.244 -5.05984e-06L238.409 8.04619L249.565 -4.08419e-06L260.721 8.04619L271.877 -3.10889e-06L283.033 8.0462L294.189 -2.13359e-06L305.353 8.0462L316.509 -1.15795e-06L327.673 8.0462L343 2.81233L343 223.5L327.689 218.266L316.533 226.312L305.377 218.266L294.221 226.312Z" fill="#B13939"/>
</svg>
