<svg width="1441" height="427" viewBox="0 0 1441 427" fill="none" xmlns="http://www.w3.org/2000/svg">
<mask id="mask0" mask-type="alpha" maskUnits="userSpaceOnUse" x="0" y="0" width="1441" height="427">
<rect x="0.497986" y="0.432861" width="1440" height="426" fill="#9D9D9D"/>
</mask>
<g mask="url(#mask0)">
<rect x="0.497986" y="0.432861" width="1440" height="426" fill="#ED1C24"/>
<path d="M213.491 284.458L284.489 355.456H213.491H142.493L213.491 284.458Z" fill="#CE1723"/>
<path d="M71.4955 142.463L142.493 213.46H71.4955H0.497772L71.4955 142.463Z" fill="#CE1723"/>
<path d="M142.493 213.46L213.491 284.458H142.493H71.4956L142.493 213.46Z" fill="#CE1723"/>
<path d="M284.489 213.46L355.487 284.458H284.489H213.491L284.489 213.46Z" fill="#CE1723"/>
<path d="M142.494 71.4646L213.491 142.462H142.494H71.4958L142.494 71.4646Z" fill="#CE1723"/>
<path d="M213.491 142.462L284.489 213.46H213.491H142.494L213.491 142.462Z" fill="#CE1723"/>
<path d="M355.487 142.462L426.485 213.46H355.487H284.489L355.487 142.462Z" fill="#CE1723"/>
<path d="M213.491 0.467285L284.489 71.4651H213.491H142.494L213.491 0.467285Z" fill="#CE1723"/>
<path d="M0.485046 71.4646L71.4828 142.462H0.485046H-70.5127L0.485046 71.4646Z" fill="#CE1723"/>
<path d="M71.4829 0.467285L142.481 71.4651H71.4829H0.485137L71.4829 0.467285Z" fill="#CE1723"/>
<path d="M284.489 71.4646L355.487 142.462H284.489H213.491L284.489 71.4646Z" fill="#CE1723"/>
<path d="M497.495 142.462L568.493 213.459H497.495H426.497L497.495 142.462Z" fill="#CE1723"/>
<path d="M71.4955 284.459L142.493 355.457H71.4955H0.497772L71.4955 284.459Z" fill="#CE1723"/>
<path d="M355.487 284.459L426.485 355.457H355.487H284.489L355.487 284.459Z" fill="#CE1723"/>
<path d="M497.495 284.458L568.493 355.456H497.495H426.497L497.495 284.458Z" fill="#CE1723"/>
<path d="M355.5 0.466797L426.498 71.4646H355.5H284.502L355.5 0.466797Z" fill="#CE1723"/>
<path d="M426.497 71.4641L497.495 142.462H426.497H355.5L426.497 71.4641Z" fill="#CE1723"/>
<path d="M142.494 213.433L213.491 284.431H142.494H71.4958L142.494 213.433Z" fill="#CE1723"/>
<path d="M0.485046 213.433L71.4828 284.431H0.485046H-70.5127L0.485046 213.433Z" fill="#CE1723"/>
<path d="M284.489 213.433L355.487 284.431H284.489H213.491L284.489 213.433Z" fill="#CE1723"/>
<path d="M426.497 213.433L497.495 284.431H426.497H355.5L426.497 213.433Z" fill="#CE1723"/>
<path d="M142.494 426.427H213.491L142.494 497.425L71.4958 426.427H142.494Z" fill="#ED1C24"/>
<path d="M142.494 355.429L213.491 426.427H142.494H71.4958L142.494 355.429Z" fill="#CE1723"/>
<path d="M0.485046 426.427H71.4828L0.485046 497.425L-70.5127 426.427H0.485046Z" fill="#ED1C24"/>
<path d="M0.485046 355.429L71.4828 426.427H0.485046H-70.5127L0.485046 355.429Z" fill="#CE1723"/>
<path d="M284.489 426.427H355.487L284.489 497.425L213.491 426.427H284.489Z" fill="#ED1C24"/>
<path d="M284.489 355.429L355.487 426.427H284.489H213.491L284.489 355.429Z" fill="#CE1723"/>
<path d="M426.497 426.426H497.495L426.497 497.424L355.5 426.426H426.497Z" fill="#ED1C24"/>
<path d="M426.497 355.428L497.495 426.426H426.497H355.5L426.497 355.428Z" fill="#CE1723"/>
<path d="M142.494 -70.5647L213.491 0.433076H142.494H71.4958L142.494 -70.5647Z" fill="#CE1723"/>
<path d="M0.485046 -70.5647L71.4828 0.433076H0.485046H-70.5127L0.485046 -70.5647Z" fill="#CE1723"/>
<path d="M284.489 -70.5647L355.487 0.433076H284.489H213.491L284.489 -70.5647Z" fill="#CE1723"/>
<path d="M426.497 -70.5652L497.495 0.432587H426.497H355.5L426.497 -70.5652Z" fill="#CE1723"/>
<path d="M639.491 284.458L710.489 355.456H639.491H568.493L639.491 284.458Z" fill="#CE1723"/>
<path d="M497.496 142.463L568.493 213.46H497.496H426.498L497.496 142.463Z" fill="#CE1723"/>
<path d="M568.493 213.46L639.491 284.458H568.493H497.496L568.493 213.46Z" fill="#CE1723"/>
<path d="M710.489 213.46L781.487 284.458H710.489H639.491L710.489 213.46Z" fill="#CE1723"/>
<path d="M568.494 71.4646L639.491 142.462H568.494H497.496L568.494 71.4646Z" fill="#CE1723"/>
<path d="M639.491 142.462L710.489 213.46H639.491H568.494L639.491 142.462Z" fill="#CE1723"/>
<path d="M781.487 142.462L852.485 213.46H781.487H710.489L781.487 142.462Z" fill="#CE1723"/>
<path d="M639.491 0.467285L710.489 71.4651H639.491H568.494L639.491 0.467285Z" fill="#CE1723"/>
<path d="M355.487 142.463L426.485 213.46H355.487H284.489L355.487 142.463Z" fill="#CE1723"/>
<path d="M426.485 71.4646L497.483 142.462H426.485H355.487L426.485 71.4646Z" fill="#CE1723"/>
<path d="M497.483 0.467285L568.481 71.4651H497.483H426.485L497.483 0.467285Z" fill="#CE1723"/>
<path d="M710.489 71.4646L781.487 142.462H710.489H639.491L710.489 71.4646Z" fill="#CE1723"/>
<path d="M923.495 142.462L994.493 213.459H923.495H852.497L923.495 142.462Z" fill="#CE1723"/>
<path d="M497.496 284.459L568.493 355.457H497.496H426.498L497.496 284.459Z" fill="#CE1723"/>
<path d="M781.487 284.459L852.485 355.457H781.487H710.489L781.487 284.459Z" fill="#CE1723"/>
<path d="M355.487 284.459L426.485 355.457H355.487H284.489L355.487 284.459Z" fill="#CE1723"/>
<path d="M923.495 284.458L994.493 355.456H923.495H852.497L923.495 284.458Z" fill="#CE1723"/>
<path d="M781.5 0.466797L852.498 71.4646H781.5H710.502L781.5 0.466797Z" fill="#CE1723"/>
<path d="M852.498 71.4641L923.495 142.462H852.498H781.5L852.498 71.4641Z" fill="#CE1723"/>
<path d="M568.494 213.433L639.491 284.431H568.494H497.496L568.494 213.433Z" fill="#CE1723"/>
<path d="M426.485 213.433L497.483 284.431H426.485H355.487L426.485 213.433Z" fill="#CE1723"/>
<path d="M710.489 213.433L781.487 284.431H710.489H639.491L710.489 213.433Z" fill="#CE1723"/>
<path d="M852.498 213.433L923.495 284.431H852.498H781.5L852.498 213.433Z" fill="#CE1723"/>
<path d="M568.494 426.427H639.491L568.494 497.425L497.496 426.427H568.494Z" fill="#ED1C24"/>
<path d="M568.494 355.429L639.491 426.427H568.494H497.496L568.494 355.429Z" fill="#CE1723"/>
<path d="M426.485 426.427H497.483L426.485 497.425L355.487 426.427H426.485Z" fill="#ED1C24"/>
<path d="M426.485 355.429L497.483 426.427H426.485H355.487L426.485 355.429Z" fill="#CE1723"/>
<path d="M710.489 426.427H781.487L710.489 497.425L639.491 426.427H710.489Z" fill="#ED1C24"/>
<path d="M710.489 355.429L781.487 426.427H710.489H639.491L710.489 355.429Z" fill="#CE1723"/>
<path d="M852.498 426.426H923.495L852.498 497.424L781.5 426.426H852.498Z" fill="#ED1C24"/>
<path d="M852.498 355.428L923.495 426.426H852.498H781.5L852.498 355.428Z" fill="#CE1723"/>
<path d="M568.494 -70.5647L639.491 0.433076H568.494H497.496L568.494 -70.5647Z" fill="#CE1723"/>
<path d="M426.485 -70.5647L497.483 0.433076H426.485H355.487L426.485 -70.5647Z" fill="#CE1723"/>
<path d="M710.489 -70.5647L781.487 0.433076H710.489H639.491L710.489 -70.5647Z" fill="#CE1723"/>
<path d="M852.498 -70.5652L923.495 0.432587H852.498H781.5L852.498 -70.5652Z" fill="#CE1723"/>
<path d="M1065.49 284.458L1136.49 355.456H1065.49H994.493L1065.49 284.458Z" fill="#CE1723"/>
<path d="M923.496 142.463L994.493 213.46H923.496H852.498L923.496 142.463Z" fill="#CE1723"/>
<path d="M994.493 213.46L1065.49 284.458H994.493H923.496L994.493 213.46Z" fill="#CE1723"/>
<path d="M1136.49 213.46L1207.49 284.458H1136.49H1065.49L1136.49 213.46Z" fill="#CE1723"/>
<path d="M994.494 71.4646L1065.49 142.462H994.494H923.496L994.494 71.4646Z" fill="#CE1723"/>
<path d="M1065.49 142.462L1136.49 213.46H1065.49H994.494L1065.49 142.462Z" fill="#CE1723"/>
<path d="M1207.49 142.462L1278.48 213.46H1207.49H1136.49L1207.49 142.462Z" fill="#CE1723"/>
<path d="M1065.49 0.467285L1136.49 71.4651H1065.49H994.494L1065.49 0.467285Z" fill="#CE1723"/>
<path d="M781.487 142.463L852.485 213.46H781.487H710.489L781.487 142.463Z" fill="#CE1723"/>
<path d="M852.485 71.4646L923.483 142.462H852.485H781.487L852.485 71.4646Z" fill="#CE1723"/>
<path d="M923.483 0.467285L994.481 71.4651H923.483H852.485L923.483 0.467285Z" fill="#CE1723"/>
<path d="M1136.49 71.4646L1207.49 142.462H1136.49H1065.49L1136.49 71.4646Z" fill="#CE1723"/>
<path d="M1349.5 142.462L1420.49 213.459H1349.5H1278.5L1349.5 142.462Z" fill="#CE1723"/>
<path d="M923.496 284.459L994.493 355.457H923.496H852.498L923.496 284.459Z" fill="#CE1723"/>
<path d="M1207.49 284.459L1278.48 355.457H1207.49H1136.49L1207.49 284.459Z" fill="#CE1723"/>
<path d="M781.487 284.459L852.485 355.457H781.487H710.489L781.487 284.459Z" fill="#CE1723"/>
<path d="M1349.5 284.458L1420.49 355.456H1349.5H1278.5L1349.5 284.458Z" fill="#CE1723"/>
<path d="M1207.5 0.466797L1278.5 71.4646H1207.5H1136.5L1207.5 0.466797Z" fill="#CE1723"/>
<path d="M1278.5 71.4641L1349.5 142.462H1278.5H1207.5L1278.5 71.4641Z" fill="#CE1723"/>
<path d="M994.494 213.433L1065.49 284.431H994.494H923.496L994.494 213.433Z" fill="#CE1723"/>
<path d="M852.485 213.433L923.483 284.431H852.485H781.487L852.485 213.433Z" fill="#CE1723"/>
<path d="M1136.49 213.433L1207.49 284.431H1136.49H1065.49L1136.49 213.433Z" fill="#CE1723"/>
<path d="M1278.5 213.433L1349.5 284.431H1278.5H1207.5L1278.5 213.433Z" fill="#CE1723"/>
<path d="M994.494 426.427H1065.49L994.494 497.425L923.496 426.427H994.494Z" fill="#ED1C24"/>
<path d="M994.494 355.429L1065.49 426.427H994.494H923.496L994.494 355.429Z" fill="#CE1723"/>
<path d="M852.485 426.427H923.483L852.485 497.425L781.487 426.427H852.485Z" fill="#ED1C24"/>
<path d="M852.485 355.429L923.483 426.427H852.485H781.487L852.485 355.429Z" fill="#CE1723"/>
<path d="M1136.49 426.427H1207.49L1136.49 497.425L1065.49 426.427H1136.49Z" fill="#ED1C24"/>
<path d="M1136.49 355.429L1207.49 426.427H1136.49H1065.49L1136.49 355.429Z" fill="#CE1723"/>
<path d="M1278.5 426.426H1349.5L1278.5 497.424L1207.5 426.426H1278.5Z" fill="#ED1C24"/>
<path d="M1278.5 355.428L1349.5 426.426H1278.5H1207.5L1278.5 355.428Z" fill="#CE1723"/>
<path d="M994.494 -70.5647L1065.49 0.433076H994.494H923.496L994.494 -70.5647Z" fill="#CE1723"/>
<path d="M852.485 -70.5647L923.483 0.433076H852.485H781.487L852.485 -70.5647Z" fill="#CE1723"/>
<path d="M1136.49 -70.5647L1207.49 0.433076H1136.49H1065.49L1136.49 -70.5647Z" fill="#CE1723"/>
<path d="M1278.5 -70.5652L1349.5 0.432587H1278.5H1207.5L1278.5 -70.5652Z" fill="#CE1723"/>
<path d="M1491.49 284.458L1562.49 355.456H1491.49H1420.49L1491.49 284.458Z" fill="#CE1723"/>
<path d="M1349.5 142.463L1420.49 213.46H1349.5H1278.5L1349.5 142.463Z" fill="#CE1723"/>
<path d="M1420.49 213.46L1491.49 284.458H1420.49H1349.5L1420.49 213.46Z" fill="#CE1723"/>
<path d="M1420.49 71.4646L1491.49 142.462H1420.49H1349.5L1420.49 71.4646Z" fill="#CE1723"/>
<path d="M1491.49 142.462L1562.49 213.46H1491.49H1420.49L1491.49 142.462Z" fill="#CE1723"/>
<path d="M1491.49 0.467285L1562.49 71.4651H1491.49H1420.49L1491.49 0.467285Z" fill="#CE1723"/>
<path d="M1207.49 142.463L1278.48 213.46H1207.49H1136.49L1207.49 142.463Z" fill="#CE1723"/>
<path d="M1278.49 71.4646L1349.48 142.462H1278.49H1207.49L1278.49 71.4646Z" fill="#CE1723"/>
<path d="M1349.48 0.467285L1420.48 71.4651H1349.48H1278.49L1349.48 0.467285Z" fill="#CE1723"/>
<path d="M1349.5 284.459L1420.49 355.457H1349.5H1278.5L1349.5 284.459Z" fill="#CE1723"/>
<path d="M1207.49 284.459L1278.48 355.457H1207.49H1136.49L1207.49 284.459Z" fill="#CE1723"/>
<path d="M1420.49 213.433L1491.49 284.431H1420.49H1349.5L1420.49 213.433Z" fill="#CE1723"/>
<path d="M1278.49 213.433L1349.48 284.431H1278.49H1207.49L1278.49 213.433Z" fill="#CE1723"/>
<path d="M1420.49 426.427H1491.49L1420.49 497.425L1349.5 426.427H1420.49Z" fill="#ED1C24"/>
<path d="M1420.49 355.429L1491.49 426.427H1420.49H1349.5L1420.49 355.429Z" fill="#CE1723"/>
<path d="M1278.49 426.427H1349.48L1278.49 497.425L1207.49 426.427H1278.49Z" fill="#ED1C24"/>
<path d="M1278.49 355.429L1349.48 426.427H1278.49H1207.49L1278.49 355.429Z" fill="#CE1723"/>
<path d="M1420.49 -70.5647L1491.49 0.433076H1420.49H1349.5L1420.49 -70.5647Z" fill="#CE1723"/>
<path d="M1278.49 -70.5647L1349.48 0.433076H1278.49H1207.49L1278.49 -70.5647Z" fill="#CE1723"/>
<rect x="0.497986" y="0.432861" width="1440" height="426" fill="url(#paint0_radial)" fill-opacity="0.3"/>
</g>
<defs>
<radialGradient id="paint0_radial" cx="0" cy="0" r="1" gradientUnits="userSpaceOnUse" gradientTransform="translate(720.498 213.433) scale(720 2433.8)">
<stop stop-color="#F26845"/>
<stop offset="0.359375" stop-color="#ED1C24"/>
<stop offset="1" stop-color="#620000"/>
</radialGradient>
</defs>
</svg>
