<svg width="614" height="428" viewBox="0 0 614 428" fill="none" xmlns="http://www.w3.org/2000/svg">
<mask id="mask0" mask-type="alpha" maskUnits="userSpaceOnUse" x="0" y="0" width="614" height="428">
<path d="M613.502 60.8669L603.477 74.7877L613.502 88.6984L603.477 102.619L613.502 116.54L603.477 130.461L613.502 144.381L603.477 158.292L613.502 172.213L603.477 186.124L613.502 200.044L603.477 213.955L613.502 227.876L603.477 241.806L613.502 255.717L603.477 269.638L613.502 283.569L603.477 297.489L613.502 311.41L603.477 325.331L613.502 339.252L603.477 353.172L613.502 367.093L603.477 381.024L613.502 394.945L603.477 409.145L609.998 428H4.00198L10.5231 408.895L0.497986 394.975L10.5231 381.054L0.497986 367.133L10.5231 353.222L0.497986 339.302L10.5231 325.381L0.497986 311.46L10.5231 297.539L0.497986 283.619L10.5231 269.708L0.497986 255.787L10.5231 241.876L0.497986 227.956L10.5231 214.045L0.497986 200.124L10.5231 186.204L0.497986 172.283L10.5231 158.362L0.497986 144.441L10.5231 130.511L0.497986 116.59L10.5231 102.669L0.497986 88.7484L10.5231 74.8277L0.497986 60.907L10.5231 46.9762L0.497986 33.0555L10.5231 19.1247L4.00198 0H609.998L603.477 19.1047L613.502 33.0255L603.477 46.9462L613.502 60.8669Z" fill="#C4C4C4"/>
</mask>
<g mask="url(#mask0)">
<path d="M613.502 60.8669L603.477 74.7877L613.502 88.6984L603.477 102.619L613.502 116.54L603.477 130.461L613.502 144.381L603.477 158.292L613.502 172.213L603.477 186.124L613.502 200.044L603.477 213.955L613.502 227.876L603.477 241.806L613.502 255.717L603.477 269.638L613.502 283.569L603.477 297.489L613.502 311.41L603.477 325.331L613.502 339.252L603.477 353.172L613.502 367.093L603.477 381.024L613.502 394.945L603.477 409.145L609.998 428H4.00198L10.5231 408.895L0.497986 394.975L10.5231 381.054L0.497986 367.133L10.5231 353.222L0.497986 339.302L10.5231 325.381L0.497986 311.46L10.5231 297.539L0.497986 283.619L10.5231 269.708L0.497986 255.787L10.5231 241.876L0.497986 227.956L10.5231 214.045L0.497986 200.124L10.5231 186.204L0.497986 172.283L10.5231 158.362L0.497986 144.441L10.5231 130.511L0.497986 116.59L10.5231 102.669L0.497986 88.7484L10.5231 74.8277L0.497986 60.907L10.5231 46.9762L0.497986 33.0555L10.5231 19.1247L4.00198 0H609.998L603.477 19.1047L613.502 33.0255L603.477 46.9462L613.502 60.8669Z" fill="#ED1C24"/>
<mask id="mask1" mask-type="alpha" maskUnits="userSpaceOnUse" x="0" y="0" width="429" height="428">
<rect x="0.497986" width="428" height="428" fill="#ED1C24"/>
</mask>
<g mask="url(#mask1)">
<path d="M214.498 285.333L285.831 356.667H214.498H143.164L214.498 285.333Z" fill="#CE1723"/>
<path d="M71.8312 142.667L143.164 214H71.8312H0.497985L71.8312 142.667Z" fill="#CE1723"/>
<path d="M143.165 214L214.498 285.333H143.165H71.8314L143.165 214Z" fill="#CE1723"/>
<path d="M285.832 214L357.165 285.333H285.832H214.498L285.832 214Z" fill="#CE1723"/>
<path d="M143.165 71.333L214.498 142.666H143.165H71.8315L143.165 71.333Z" fill="#CE1723"/>
<path d="M214.498 142.666L285.831 214H214.498H143.165L214.498 142.666Z" fill="#CE1723"/>
<path d="M357.165 142.666L428.498 214H357.165H285.832L357.165 142.666Z" fill="#CE1723"/>
<path d="M214.498 0L285.831 71.3333H214.498H143.165L214.498 0Z" fill="#CE1723"/>
<path d="M285.832 71.333L357.165 142.666H285.832H214.498L285.832 71.333Z" fill="#CE1723"/>
<path d="M428.497 71.3333L499.831 142.667H428.497H357.164L428.497 71.3333Z" fill="#CE1723"/>
<path d="M285.831 -71.3335L357.164 -0.000242808H285.831H214.498L285.831 -71.3335Z" fill="#CE1723"/>
<path d="M357.164 -0.000488281L428.498 71.3328H357.164H285.831L357.164 -0.000488281Z" fill="#CE1723"/>
<path d="M428.498 -71.334L499.831 -0.00073109H428.498H357.165L428.498 -71.334Z" fill="#CE1723"/>
<path d="M0.497498 71.3333L71.8308 142.667H0.497498H-70.8358L0.497498 71.3333Z" fill="#CE1723"/>
<path d="M71.8313 -0.000488281L143.165 71.3328H71.8313H0.498046L71.8313 -0.000488281Z" fill="#CE1723"/>
<path d="M0.497925 -71.334L71.8312 -0.00073109H0.497925H-70.8353L0.497925 -71.334Z" fill="#CE1723"/>
<path d="M143.165 -71.334L214.498 -0.00073109H143.165H71.8313L143.165 -71.334Z" fill="#CE1723"/>
<path d="M285.831 428H357.164L285.831 499.333L214.498 428H285.831Z" fill="#ED1C24"/>
<path d="M285.831 356.667L357.164 428H285.831H214.498L285.831 356.667Z" fill="#CE1723"/>
<path d="M357.164 499.333H428.498L357.164 570.666L285.831 499.333H357.164Z" fill="#ED1C24"/>
<path d="M357.164 428L428.498 499.333H357.164H285.831L357.164 428Z" fill="#CE1723"/>
<path d="M357.165 285.333L428.498 356.666H357.165H285.831L357.165 285.333Z" fill="#CE1723"/>
<path d="M428.498 428H499.831L428.498 499.333L357.165 428H428.498Z" fill="#ED1C24"/>
<path d="M428.498 356.666L499.831 428H428.498H357.165L428.498 356.666Z" fill="#CE1723"/>
<path d="M428.498 214L499.831 285.333H428.498H357.165L428.498 214Z" fill="#CE1723"/>
<path d="M71.8313 499.333H143.165L71.8313 570.666L0.498046 499.333H71.8313Z" fill="#ED1C24"/>
<path d="M71.8313 428L143.165 499.333H71.8313H0.498046L71.8313 428Z" fill="#CE1723"/>
<path d="M0.497925 428H71.8312L0.497925 499.333L-70.8353 428H0.497925Z" fill="#ED1C24"/>
<path d="M0.497925 356.666L71.8312 428H0.497925H-70.8353L0.497925 356.666Z" fill="#CE1723"/>
<path d="M143.165 428H214.498L143.165 499.333L71.8313 428H143.165Z" fill="#ED1C24"/>
<path d="M143.165 356.666L214.498 428H143.165H71.8313L143.165 356.666Z" fill="#CE1723"/>
<path d="M0.497925 214L71.8312 285.333H0.497925H-70.8353L0.497925 214Z" fill="#CE1723"/>
<path d="M71.8313 285.333L143.165 356.666H71.8313H0.498046L71.8313 285.333Z" fill="#CE1723"/>
<path d="M-70.8352 214H0.498048L-70.8352 285.333L-142.168 214H-70.8352Z" fill="#ED1C24"/>
<path d="M-70.8352 142.666L0.498048 214H-70.8352H-142.168L-70.8352 142.666Z" fill="#CE1723"/>
</g>
<path d="M642.498 285.333L713.831 356.667H642.498H571.164L642.498 285.333Z" fill="#CE1723"/>
<path d="M499.831 142.667L571.164 214H499.831H428.498L499.831 142.667Z" fill="#CE1723"/>
<path d="M571.165 214L642.498 285.333H571.165H499.831L571.165 214Z" fill="#CE1723"/>
<path d="M571.165 71.333L642.498 142.666H571.165H499.831L571.165 71.333Z" fill="#CE1723"/>
<path d="M642.498 142.666L713.831 214H642.498H571.165L642.498 142.666Z" fill="#CE1723"/>
<path d="M642.498 0L713.831 71.3333H642.498H571.165L642.498 0Z" fill="#CE1723"/>
<path d="M428.497 71.3333L499.831 142.667H428.497H357.164L428.497 71.3333Z" fill="#CE1723"/>
<path d="M285.831 -0.000242808H357.164L285.831 71.333L214.498 -0.000242808H285.831Z" fill="#ED1C24"/>
<path d="M285.831 -71.3335L357.164 -0.000242808H285.831H214.498L285.831 -71.3335Z" fill="#CE1723"/>
<path d="M357.164 71.3328H428.498L357.164 142.666L285.831 71.3328H357.164Z" fill="#ED1C24"/>
<path d="M357.164 -0.000488281L428.498 71.3328H357.164H285.831L357.164 -0.000488281Z" fill="#CE1723"/>
<path d="M499.831 -0.000488281L571.164 71.3328H499.831H428.498L499.831 -0.000488281Z" fill="#CE1723"/>
<path d="M428.498 -71.334L499.831 -0.00073109H428.498H357.165L428.498 -71.334Z" fill="#CE1723"/>
<path d="M571.165 -71.334L642.498 -0.00073109H571.165H499.831L571.165 -71.334Z" fill="#CE1723"/>
<path d="M285.831 428H357.164L285.831 499.333L214.498 428H285.831Z" fill="#ED1C24"/>
<path d="M285.831 356.667L357.164 428H285.831H214.498L285.831 356.667Z" fill="#CE1723"/>
<path d="M357.164 499.333H428.498L357.164 570.666L285.831 499.333H357.164Z" fill="#ED1C24"/>
<path d="M357.164 428L428.498 499.333H357.164H285.831L357.164 428Z" fill="#CE1723"/>
<path d="M499.831 499.333H571.164L499.831 570.666L428.498 499.333H499.831Z" fill="#ED1C24"/>
<path d="M499.831 428L571.164 499.333H499.831H428.498L499.831 428Z" fill="#CE1723"/>
<path d="M357.164 356.666H428.498L357.164 427.999L285.831 356.666H357.164Z" fill="#ED1C24"/>
<path d="M357.164 285.333L428.498 356.666H357.164H285.831L357.164 285.333Z" fill="#CE1723"/>
<path d="M428.498 428H499.831L428.498 499.333L357.165 428H428.498Z" fill="#ED1C24"/>
<path d="M428.498 356.666L499.831 428H428.498H357.165L428.498 356.666Z" fill="#CE1723"/>
<path d="M571.165 428H642.498L571.165 499.333L499.831 428H571.165Z" fill="#ED1C24"/>
<path d="M571.165 356.666L642.498 428H571.165H499.831L571.165 356.666Z" fill="#CE1723"/>
<path d="M428.498 214L499.831 285.333H428.498H357.165L428.498 214Z" fill="#CE1723"/>
<path d="M499.831 285.333L571.164 356.666H499.831H428.498L499.831 285.333Z" fill="#CE1723"/>
<path d="M214.498 356.667H285.831L214.498 428L143.164 356.667H214.498Z" fill="#ED1C24"/>
<path d="M214.498 285.333L285.831 356.667H214.498H143.164L214.498 285.333Z" fill="#CE1723"/>
<path d="M71.8312 214H143.164L71.8312 285.333L0.497985 214H71.8312Z" fill="#ED1C24"/>
<path d="M71.8312 142.667L143.164 214H71.8312H0.497985L71.8312 142.667Z" fill="#CE1723"/>
<path d="M143.165 285.333H214.498L143.165 356.666L71.8314 285.333H143.165Z" fill="#ED1C24"/>
<path d="M143.165 214L214.498 285.333H143.165H71.8314L143.165 214Z" fill="#CE1723"/>
<path d="M285.832 285.333H357.165L285.832 356.666L214.498 285.333H285.832Z" fill="#ED1C24"/>
<path d="M285.832 214L357.165 285.333H285.832H214.498L285.832 214Z" fill="#CE1723"/>
<path d="M143.165 142.666H214.498L143.165 214L71.8315 142.666H143.165Z" fill="#ED1C24"/>
<path d="M143.165 71.333L214.498 142.666H143.165H71.8315L143.165 71.333Z" fill="#CE1723"/>
<path d="M214.498 214H285.831L214.498 285.333L143.165 214H214.498Z" fill="#ED1C24"/>
<path d="M214.498 142.666L285.831 214H214.498H143.165L214.498 142.666Z" fill="#CE1723"/>
<path d="M357.165 214H428.498L357.165 285.333L285.832 214H357.165Z" fill="#ED1C24"/>
<path d="M357.165 142.666L428.498 214H357.165H285.832L357.165 142.666Z" fill="#CE1723"/>
<path d="M214.498 71.3333H285.831L214.498 142.667L143.165 71.3333H214.498Z" fill="#ED1C24"/>
<path d="M214.498 0L285.831 71.3333H214.498H143.165L214.498 0Z" fill="#CE1723"/>
<path d="M285.832 142.666H357.165L285.832 214L214.498 142.666H285.832Z" fill="#ED1C24"/>
<path d="M285.832 71.333L357.165 142.666H285.832H214.498L285.832 71.333Z" fill="#CE1723"/>
<rect x="0.497986" y="1.04736" width="613.004" height="426" fill="url(#paint0_radial)" fill-opacity="0.3"/>
</g>
<defs>
<radialGradient id="paint0_radial" cx="0" cy="0" r="1" gradientUnits="userSpaceOnUse" gradientTransform="translate(307 214.047) scale(306.502 2433.8)">
<stop stop-color="#F26845"/>
<stop offset="0.359375" stop-color="#ED1C24"/>
<stop offset="1" stop-color="#620000"/>
</radialGradient>
</defs>
</svg>
